2021-05-15 16:34:18,478 [main] INFO FABPIK ECOM - URL is Opened
2021-05-15 16:34:21,122 [main] INFO FABPIK ECOM - Clicked on LOGIN button in Home page
2021-05-15 16:34:25,058 [main] INFO FABPIK ECOM - Clicked after email Login button
2021-05-15 16:34:28,464 [main] INFO FABPIK ECOM - Clicking on LOGINWITHPASSWORD Button
2021-05-15 16:34:31,639 [main] INFO FABPIK ECOM - Password entered
2021-05-15 16:34:34,664 [main] INFO FABPIK ECOM - Clicked on FINAL LOGIN Button
2021-05-15 16:39:44,549 [main] INFO FABPIK ECOM - URL is Opened
2021-05-15 16:39:45,445 [main] INFO FABPIK ECOM - Clicked on LOGIN button in Home page
2021-05-15 16:39:49,336 [main] INFO FABPIK ECOM - Clicked after email Login button
2021-05-15 16:39:53,872 [main] INFO FABPIK ECOM - Clicking on LOGINWITHPASSWORD Button
2021-05-15 16:39:56,969 [main] INFO FABPIK ECOM - Password entered
2021-05-15 16:40:00,380 [main] INFO FABPIK ECOM - Clicked on FINAL LOGIN Button
2021-05-15 16:42:54,962 [main] INFO FABPIK ECOM - URL is Opened
2021-05-15 16:42:56,108 [main] INFO FABPIK ECOM - Clicked on LOGIN button in Home page
2021-05-15 16:43:03,105 [main] INFO FABPIK ECOM - Clicked after email Login button
2021-05-15 16:43:08,859 [main] INFO FABPIK ECOM - Clicking on LOGINWITHPASSWORD Button
2021-05-15 16:43:12,262 [main] INFO FABPIK ECOM - Password entered
2021-05-15 16:43:15,380 [main] INFO FABPIK ECOM - Clicked on FINAL LOGIN Button
2021-05-15 16:49:13,693 [main] INFO FABPIK ECOM - URL is Opened
2021-05-15 16:49:13,705 [main] INFO FABPIK ECOM - THE PAGE TITLE IS:::::::  ONE STOP PORTAL FOR KIDS NEEDS
2021-05-15 16:49:18,321 [main] INFO FABPIK ECOM - Clicked on LOGIN button in Home page
2021-05-15 16:53:52,210 [main] INFO FABPIK ECOM - URL is Opened
2021-05-15 16:53:52,248 [main] INFO FABPIK ECOM - THE PAGE TITLE IS:::::::  ONE STOP PORTAL FOR KIDS NEEDS
2021-05-15 16:53:53,084 [main] INFO FABPIK ECOM - Clicked on LOGIN button in Home page
2021-05-15 16:53:56,562 [main] INFO FABPIK ECOM - Clicked after email Login button
2021-05-15 16:53:59,760 [main] INFO FABPIK ECOM - Clicking on LOGINWITHPASSWORD Button
2021-05-15 16:54:02,972 [main] INFO FABPIK ECOM - Password entered
2021-05-15 16:54:05,745 [main] INFO FABPIK ECOM - Clicked on FINAL LOGIN Button
2021-05-15 17:52:30,323 [main] INFO FABPIK ECOM - URL is Opened
2021-05-15 17:52:30,630 [main] INFO FABPIK ECOM - THE PAGE TITLE IS:::::::  ONE STOP PORTAL FOR KIDS NEEDS
2021-05-15 17:52:32,436 [main] INFO FABPIK ECOM - Clicked on LOGIN button in Home page
2021-05-15 17:52:36,488 [main] INFO FABPIK ECOM - Clicked after email Login button
2021-05-15 17:52:39,969 [main] INFO FABPIK ECOM - Clicking on LOGINWITHPASSWORD Button
2021-05-15 17:52:43,311 [main] INFO FABPIK ECOM - Password entered
2021-05-15 17:52:46,543 [main] INFO FABPIK ECOM - Clicked on FINAL LOGIN Button
2021-05-15 18:34:41,484 [main] INFO FABPIK ECOM - URL is Opened
2021-05-15 18:34:41,543 [main] INFO FABPIK ECOM - THE PAGE TITLE IS:::::::  ONE STOP PORTAL FOR KIDS NEEDS
2021-05-15 18:34:42,214 [main] INFO FABPIK ECOM - Clicked on LOGIN button in Home page
2021-05-15 18:34:46,808 [main] INFO FABPIK ECOM - Clicked after email Login button
2021-05-15 18:34:50,608 [main] INFO FABPIK ECOM - Clicking on LOGINWITHPASSWORD Button
2021-05-15 18:34:53,772 [main] INFO FABPIK ECOM - Password entered
2021-05-15 18:34:56,577 [main] INFO FABPIK ECOM - Clicked on FINAL LOGIN Button
2021-05-15 18:42:41,816 [main] INFO FABPIK ECOM - URL is Opened
2021-05-15 18:42:41,828 [main] INFO FABPIK ECOM - THE PAGE TITLE IS:::::::  ONE STOP PORTAL FOR KIDS NEEDS
2021-05-16 15:36:37,975 [main] INFO FABPIK ECOM - URL is Opened
2021-05-16 15:36:38,373 [main] INFO FABPIK ECOM - THE PAGE TITLE IS:::::::  ONE STOP PORTAL FOR KIDS NEEDS
2021-05-16 15:42:24,662 [main] INFO FABPIK ECOM - URL is Opened
2021-05-16 15:42:24,671 [main] INFO FABPIK ECOM - THE PAGE TITLE IS:::::::  ONE STOP PORTAL FOR KIDS NEEDS
2021-05-16 15:42:27,409 [main] INFO FABPIK ECOM - Clicked on LOGIN button in Home page
2021-05-16 15:42:34,039 [main] INFO FABPIK ECOM - Clicked after email Login button
2021-05-16 15:42:37,058 [main] INFO FABPIK ECOM - Clicking on LOGINWITHPASSWORD Button
2021-05-16 15:42:39,941 [main] INFO FABPIK ECOM - Password entered
2021-05-16 15:42:42,750 [main] INFO FABPIK ECOM - Clicked on FINAL LOGIN Button
2021-05-16 16:09:59,887 [main] INFO FABPIK ECOM - URL is Opened
2021-05-16 16:09:59,941 [main] INFO FABPIK ECOM - THE PAGE TITLE IS:::::::  ONE STOP PORTAL FOR KIDS NEEDS
2021-05-16 16:13:21,082 [main] INFO FABPIK ECOM - URL is Opened
2021-05-16 16:13:21,733 [main] INFO FABPIK ECOM - THE PAGE TITLE IS:::::::  ONE STOP PORTAL FOR KIDS NEEDS
2021-05-16 16:13:23,051 [main] INFO FABPIK ECOM - Clicked on LOGIN button in Home page
2021-05-16 16:13:27,653 [main] INFO FABPIK ECOM - Clicked after email Login button
2021-05-16 16:13:31,361 [main] INFO FABPIK ECOM - Clicking on LOGINWITHPASSWORD Button
2021-05-16 16:13:34,064 [main] INFO FABPIK ECOM - Password entered
2021-05-16 16:13:37,002 [main] INFO FABPIK ECOM - Clicked on FINAL LOGIN Button
2021-05-16 16:18:23,932 [main] INFO FABPIK ECOM - URL is Opened
2021-05-16 16:18:23,942 [main] INFO FABPIK ECOM - THE PAGE TITLE IS:::::::  ONE STOP PORTAL FOR KIDS NEEDS
2021-05-16 16:18:50,735 [main] INFO FABPIK ECOM - OPENED FIREFOX
2021-05-16 16:20:51,480 [main] INFO FABPIK ECOM - URL is Opened
2021-05-16 16:20:51,481 [main] INFO FABPIK ECOM - THE PAGE TITLE IS:::::::  ONE STOP PORTAL FOR KIDS NEEDS
2021-05-16 16:20:52,690 [main] INFO FABPIK ECOM - Clicked on LOGIN button in Home page
2021-05-16 16:20:56,004 [main] INFO FABPIK ECOM - Clicked after email Login button
2021-05-16 16:21:00,007 [main] INFO FABPIK ECOM - Clicking on LOGINWITHPASSWORD Button
2021-05-16 16:21:02,722 [main] INFO FABPIK ECOM - Password entered
2021-05-16 16:21:05,592 [main] INFO FABPIK ECOM - Clicked on FINAL LOGIN Button
2021-05-17 11:58:57,109 [main] INFO FABPIK ECOM - OPENED FIREFOX
2021-05-17 12:00:49,513 [main] INFO FABPIK ECOM - URL is Opened
2021-05-17 12:00:49,515 [main] INFO FABPIK ECOM - THE PAGE TITLE IS:::::::  ONE STOP PORTAL FOR KIDS NEEDS
2021-05-17 12:00:51,049 [main] INFO FABPIK ECOM - Clicked on LOGIN button in Home page
2021-05-17 12:00:54,964 [main] INFO FABPIK ECOM - Clicked after email Login button
2021-05-17 12:00:58,427 [main] INFO FABPIK ECOM - Clicking on LOGINWITHPASSWORD Button
2021-05-17 12:01:01,080 [main] INFO FABPIK ECOM - Password entered
2021-05-17 12:01:04,035 [main] INFO FABPIK ECOM - Clicked on FINAL LOGIN Button
2021-05-26 10:41:54,094 [main] INFO FABPIK ECOM - OPENED FIREFOX
2021-05-26 10:43:20,894 [main] INFO FABPIK ECOM - URL is Opened
2021-05-26 10:43:20,894 [main] INFO FABPIK ECOM - THE PAGE TITLE IS:::::::  ONE STOP PORTAL FOR KIDS NEEDS
2021-05-26 10:43:22,051 [main] INFO FABPIK ECOM - Clicked on LOGIN button in Home page
2021-05-26 10:43:25,661 [main] INFO FABPIK ECOM - Clicked after email Login button
2021-05-26 10:43:29,520 [main] INFO FABPIK ECOM - Clicking on LOGINWITHPASSWORD Button
2021-05-26 10:43:32,172 [main] INFO FABPIK ECOM - Password entered
2021-05-26 10:43:35,034 [main] INFO FABPIK ECOM - Clicked on FINAL LOGIN Button
2021-05-26 10:47:29,367 [main] INFO FABPIK ECOM - OPENED CHROME
2021-05-26 10:47:41,366 [main] INFO FABPIK ECOM - URL is Opened
2021-05-26 10:47:41,367 [main] INFO FABPIK ECOM - THE PAGE TITLE IS:::::::  ONE STOP PORTAL FOR KIDS NEEDS
2021-05-26 12:08:22,565 [main] INFO FABPIK ECOM - OPENED CHROME
2021-05-26 12:09:26,778 [main] INFO FABPIK ECOM - URL is Opened
2021-05-26 12:09:26,780 [main] INFO FABPIK ECOM - THE PAGE TITLE IS:::::::  ONE STOP PORTAL FOR KIDS NEEDS
2021-05-26 12:09:27,431 [main] INFO FABPIK ECOM - Clicked on LOGIN button in Home page
2021-05-26 12:09:31,236 [main] INFO FABPIK ECOM - Clicked after email Login button
2021-05-26 12:09:34,329 [main] INFO FABPIK ECOM - Clicking on LOGINWITHPASSWORD Button
2021-05-26 12:09:37,491 [main] INFO FABPIK ECOM - Password entered
2021-05-26 12:09:40,313 [main] INFO FABPIK ECOM - Clicked on FINAL LOGIN Button
2021-05-26 12:52:57,110 [main] INFO FABPIK ECOM - OPENED CHROME
2021-05-26 12:54:04,529 [main] INFO FABPIK ECOM - URL is Opened
2021-05-26 12:54:04,530 [main] INFO FABPIK ECOM - THE PAGE TITLE IS:::::::  ONE STOP PORTAL FOR KIDS NEEDS
2021-05-26 12:54:04,962 [main] INFO FABPIK ECOM - Clicked on LOGIN button in Home page
2021-05-26 12:54:08,471 [main] INFO FABPIK ECOM - Clicked after email Login button
2021-05-26 12:54:11,530 [main] INFO FABPIK ECOM - Clicking on LOGINWITHPASSWORD Button
2021-05-26 12:54:14,465 [main] INFO FABPIK ECOM - Password entered
2021-05-26 12:54:17,262 [main] INFO FABPIK ECOM - Clicked on FINAL LOGIN Button
2021-05-26 12:54:17,299 [main] INFO FABPIK ECOM - Login test Passed
2021-05-26 12:55:41,957 [main] INFO FABPIK ECOM - OPENED CHROME
2021-05-26 12:56:57,578 [main] INFO FABPIK ECOM - URL is Opened
2021-05-26 12:56:57,578 [main] INFO FABPIK ECOM - THE PAGE TITLE IS:::::::  ONE STOP PORTAL FOR KIDS NEEDS
2021-05-26 12:56:58,074 [main] INFO FABPIK ECOM - Clicked on LOGIN button in Home page
2021-05-26 12:57:01,519 [main] INFO FABPIK ECOM - Clicked after email Login button
2021-05-26 12:57:04,658 [main] INFO FABPIK ECOM - Clicking on LOGINWITHPASSWORD Button
2021-05-26 12:57:07,721 [main] INFO FABPIK ECOM - Password entered
2021-05-26 12:57:10,514 [main] INFO FABPIK ECOM - Clicked on FINAL LOGIN Button
2021-05-26 12:57:11,335 [main] INFO FABPIK ECOM - Login test Failed
2021-05-26 13:03:36,800 [main] INFO FABPIK ECOM - OPENED CHROME
2021-05-26 13:05:06,328 [main] INFO FABPIK ECOM - URL is Opened
2021-05-26 13:05:06,328 [main] INFO FABPIK ECOM - THE PAGE TITLE IS:::::::  ONE STOP PORTAL FOR KIDS NEEDS
2021-05-26 13:05:06,810 [main] INFO FABPIK ECOM - Clicked on LOGIN button in Home page
2021-05-26 13:05:10,343 [main] INFO FABPIK ECOM - Clicked after email Login button
2021-05-26 13:08:48,058 [main] INFO FABPIK ECOM - OPENED CHROME
2021-05-26 13:10:41,663 [main] INFO FABPIK ECOM - URL is Opened
2021-05-26 13:10:41,664 [main] INFO FABPIK ECOM - THE PAGE TITLE IS:::::::  ONE STOP PORTAL FOR KIDS NEEDS
2021-05-26 13:10:42,210 [main] INFO FABPIK ECOM - Clicked on LOGIN button in Home page
2021-05-26 15:53:02,334 [main] INFO FABPIK ECOM - OPENED CHROME
2021-05-26 15:53:55,077 [main] INFO FABPIK ECOM - URL is Opened
2021-05-26 15:53:55,079 [main] INFO FABPIK ECOM - THE PAGE TITLE IS:::::::  ONE STOP PORTAL FOR KIDS NEEDS
2021-05-26 15:53:55,620 [main] INFO FABPIK ECOM - Clicked on LOGIN button in Home page
2021-05-26 15:53:59,345 [main] INFO FABPIK ECOM - Clicked after email Login button
2021-05-26 15:54:02,727 [main] INFO FABPIK ECOM - Clicking on LOGINWITHPASSWORD Button
2021-05-26 15:54:06,022 [main] INFO FABPIK ECOM - Password entered
2021-05-26 15:54:08,912 [main] INFO FABPIK ECOM - Clicked on FINAL LOGIN Button
2021-05-26 15:54:08,968 [main] INFO FABPIK ECOM - Login test Passed
2021-05-26 15:54:12,001 [main] INFO FABPIK ECOM - Logged out successfully
2021-05-26 15:55:15,467 [main] INFO FABPIK ECOM - OPENED CHROME
2021-05-26 15:56:27,014 [main] INFO FABPIK ECOM - URL is Opened
2021-05-26 15:56:27,014 [main] INFO FABPIK ECOM - THE PAGE TITLE IS:::::::  ONE STOP PORTAL FOR KIDS NEEDS
2021-05-26 15:56:27,683 [main] INFO FABPIK ECOM - Clicked on LOGIN button in Home page
2021-05-26 15:56:31,615 [main] INFO FABPIK ECOM - Clicked after email Login button
2021-05-26 15:56:34,682 [main] INFO FABPIK ECOM - Clicking on LOGINWITHPASSWORD Button
2021-05-26 15:56:37,630 [main] INFO FABPIK ECOM - Password entered
2021-05-26 15:56:40,522 [main] INFO FABPIK ECOM - Clicked on FINAL LOGIN Button
2021-05-26 15:56:40,570 [main] INFO FABPIK ECOM - Login test Passed
2021-05-26 15:56:46,192 [main] INFO FABPIK ECOM - Logged out successfully
2021-05-26 15:58:27,517 [main] INFO FABPIK ECOM - OPENED CHROME
2021-05-26 16:00:16,250 [main] INFO FABPIK ECOM - OPENED CHROME
2021-05-26 16:01:06,723 [main] INFO FABPIK ECOM - URL is Opened
2021-05-26 16:01:06,724 [main] INFO FABPIK ECOM - THE PAGE TITLE IS:::::::  ONE STOP PORTAL FOR KIDS NEEDS
2021-05-26 16:01:07,185 [main] INFO FABPIK ECOM - Clicked on LOGIN button in Home page
2021-05-26 16:01:10,718 [main] INFO FABPIK ECOM - Clicked after email Login button
2021-05-26 16:01:15,801 [main] INFO FABPIK ECOM - Clicking on LOGINWITHPASSWORD Button
2021-05-26 16:01:21,867 [main] INFO FABPIK ECOM - Password entered
2021-05-26 16:01:27,907 [main] INFO FABPIK ECOM - Clicked on FINAL LOGIN Button
2021-05-26 16:01:27,956 [main] INFO FABPIK ECOM - Login test Passed
2021-05-26 16:01:43,637 [main] INFO FABPIK ECOM - Logged out successfully
2021-05-26 16:23:56,424 [main] INFO FABPIK ECOM - OPENED CHROME
2021-05-26 16:24:58,547 [main] INFO FABPIK ECOM - URL is Opened
2021-05-26 16:24:59,517 [main] INFO FABPIK ECOM - THE PAGE TITLE IS:::::::  ONE STOP PORTAL FOR KIDS NEEDS
2021-05-26 16:25:00,514 [main] INFO FABPIK ECOM - Clicked on LOGIN button in Home page
2021-05-26 16:25:04,398 [main] INFO FABPIK ECOM - Clicked after email Login button
2021-06-07 18:43:12,849 [main] INFO FABPIK ECOM - OPENED CHROME
2021-06-07 18:45:12,711 [main] INFO FABPIK ECOM - URL is Opened
2021-06-07 18:45:13,833 [main] INFO FABPIK ECOM - THE PAGE TITLE IS:::::::  ONE STOP PORTAL FOR KIDS NEEDS
2021-06-07 18:45:15,203 [main] INFO FABPIK ECOM - Clicked on LOGIN button in Home page
2021-06-07 18:45:19,371 [main] INFO FABPIK ECOM - Clicked after email Login button
2021-06-07 18:45:22,458 [main] INFO FABPIK ECOM - Clicking on LOGINWITHPASSWORD Button
2021-06-07 18:45:25,525 [main] INFO FABPIK ECOM - Password entered
2021-06-07 18:45:28,408 [main] INFO FABPIK ECOM - Clicked on FINAL LOGIN Button
2021-06-07 18:45:28,482 [main] INFO FABPIK ECOM - Login test Passed
2021-06-07 18:49:49,012 [main] INFO FABPIK ECOM - OPENED CHROME
2021-06-07 18:51:01,292 [main] INFO FABPIK ECOM - URL is Opened
2021-06-08 12:17:05,259 [main] INFO FABPIK ECOM - OPENED CHROME
2021-06-08 12:18:44,525 [main] INFO FABPIK ECOM - URL is Opened
2021-06-08 12:18:47,417 [main] INFO FABPIK ECOM - Clicked on LOGIN button in Home page
2021-06-08 12:18:51,030 [main] INFO FABPIK ECOM - Clicked after email Login button
2021-06-08 12:18:54,440 [main] INFO FABPIK ECOM - Clicking on LOGINWITHPASSWORD Button
2021-06-08 12:18:57,519 [main] INFO FABPIK ECOM - Password entered
2021-06-08 12:19:00,448 [main] INFO FABPIK ECOM - Clicked on FINAL LOGIN Button
2021-06-08 12:19:03,534 [main] INFO FABPIK ECOM - Selected a Product
2021-06-08 13:21:31,702 [main] INFO FABPIK ECOM - OPENED CHROME
2021-06-08 13:23:08,951 [main] INFO FABPIK ECOM - URL is Opened
2021-06-08 13:23:11,283 [main] INFO FABPIK ECOM - Clicked on LOGIN button in Home page
2021-06-08 13:23:14,682 [main] INFO FABPIK ECOM - Clicked after email Login button
2021-06-08 13:23:17,550 [main] INFO FABPIK ECOM - Clicking on LOGINWITHPASSWORD Button
2021-06-08 13:23:20,342 [main] INFO FABPIK ECOM - Password entered
2021-06-08 13:23:23,071 [main] INFO FABPIK ECOM - Clicked on FINAL LOGIN Button
2021-06-08 13:23:25,907 [main] INFO FABPIK ECOM - Selected a Product
2021-06-08 13:28:09,931 [main] INFO FABPIK ECOM - OPENED CHROME
2021-06-08 13:29:54,659 [main] INFO FABPIK ECOM - URL is Opened
2021-06-08 13:29:56,936 [main] INFO FABPIK ECOM - Clicked on LOGIN button in Home page
2021-06-08 13:30:01,320 [main] INFO FABPIK ECOM - Clicked after email Login button
2021-06-08 13:30:05,538 [main] INFO FABPIK ECOM - Clicking on LOGINWITHPASSWORD Button
2021-06-08 13:30:08,893 [main] INFO FABPIK ECOM - Password entered
2021-06-08 13:30:11,715 [main] INFO FABPIK ECOM - Clicked on FINAL LOGIN Button
2021-06-08 13:30:14,482 [main] INFO FABPIK ECOM - Selected a Product
2021-06-08 13:36:42,285 [main] INFO FABPIK ECOM - OPENED CHROME
2021-06-08 13:38:15,100 [main] INFO FABPIK ECOM - URL is Opened
2021-06-08 13:38:17,673 [main] INFO FABPIK ECOM - Clicked on LOGIN button in Home page
2021-06-08 13:38:22,485 [main] INFO FABPIK ECOM - Clicked after email Login button
2021-06-08 13:38:27,351 [main] INFO FABPIK ECOM - Clicking on LOGINWITHPASSWORD Button
2021-06-08 13:38:32,242 [main] INFO FABPIK ECOM - Password entered
2021-06-08 13:38:35,295 [main] INFO FABPIK ECOM - Clicked on FINAL LOGIN Button
2021-06-08 13:38:39,342 [main] INFO FABPIK ECOM - Selected a Product
2021-06-08 13:40:24,817 [main] INFO FABPIK ECOM - OPENED CHROME
2021-06-08 13:43:09,508 [main] INFO FABPIK ECOM - URL is Opened
2021-06-08 13:43:14,790 [main] INFO FABPIK ECOM - Clicked on LOGIN button in Home page
2021-06-08 13:43:20,084 [main] INFO FABPIK ECOM - Clicked after email Login button
2021-06-08 13:43:27,650 [main] INFO FABPIK ECOM - Clicking on LOGINWITHPASSWORD Button
2021-06-08 13:43:30,508 [main] INFO FABPIK ECOM - Password entered
2021-06-08 13:43:33,345 [main] INFO FABPIK ECOM - Clicked on FINAL LOGIN Button
2021-06-08 13:43:35,904 [main] INFO FABPIK ECOM - Selected a Product
2021-06-13 11:44:14,895 [main] INFO FABPIK ECOM - OPENED CHROME
2021-06-13 11:47:18,545 [main] INFO FABPIK ECOM - URL is Opened
2021-06-13 11:47:22,886 [main] INFO FABPIK ECOM - Clicked on LOGIN button in Home page
2021-06-13 11:47:37,697 [main] INFO FABPIK ECOM - Clicked after email Login button
2021-06-13 11:47:42,229 [main] INFO FABPIK ECOM - Clicking on LOGINWITHPASSWORD Button
2021-06-13 11:47:45,252 [main] INFO FABPIK ECOM - Password entered
2021-06-13 11:47:48,237 [main] INFO FABPIK ECOM - Clicked on FINAL LOGIN Button
2021-06-13 11:47:52,278 [main] INFO FABPIK ECOM - Selected a Product
2021-06-13 12:25:11,476 [main] INFO FABPIK ECOM - OPENED FIREFOX
2021-06-13 12:25:35,009 [main] INFO FABPIK ECOM - URL is Opened
2021-06-13 12:25:36,697 [main] INFO FABPIK ECOM - Clicked on LOGIN button in Home page
2021-06-13 12:25:39,929 [main] INFO FABPIK ECOM - Clicked after email Login button
2021-06-13 12:25:43,004 [main] INFO FABPIK ECOM - Clicking on LOGINWITHPASSWORD Button
2021-06-13 12:25:45,669 [main] INFO FABPIK ECOM - Password entered
2021-06-13 12:25:48,488 [main] INFO FABPIK ECOM - Clicked on FINAL LOGIN Button
2021-06-13 12:27:29,283 [main] INFO FABPIK ECOM - OPENED FIREFOX
2021-06-13 12:28:29,917 [main] INFO FABPIK ECOM - URL is Opened
2021-06-13 12:28:31,494 [main] INFO FABPIK ECOM - Clicked on LOGIN button in Home page
2021-06-13 12:28:34,890 [main] INFO FABPIK ECOM - Clicked after email Login button
2021-06-13 12:28:38,010 [main] INFO FABPIK ECOM - Clicking on LOGINWITHPASSWORD Button
2021-06-13 12:28:40,708 [main] INFO FABPIK ECOM - Password entered
2021-06-13 12:28:43,627 [main] INFO FABPIK ECOM - Clicked on FINAL LOGIN Button
2021-06-13 12:28:50,965 [main] INFO FABPIK ECOM - clicked on search navigation
2021-06-13 12:28:53,901 [main] INFO FABPIK ECOM - Selected a Product
2021-06-13 12:33:56,731 [main] INFO FABPIK ECOM - OPENED FIREFOX
2021-06-13 12:34:33,899 [main] INFO FABPIK ECOM - URL is Opened
2021-06-13 12:34:35,917 [main] INFO FABPIK ECOM - Clicked on LOGIN button in Home page
2021-06-13 12:34:40,546 [main] INFO FABPIK ECOM - Clicked after email Login button
2021-06-13 12:34:44,667 [main] INFO FABPIK ECOM - Clicking on LOGINWITHPASSWORD Button
2021-06-13 12:34:47,443 [main] INFO FABPIK ECOM - Password entered
2021-06-13 12:34:50,307 [main] INFO FABPIK ECOM - Clicked on FINAL LOGIN Button
2021-06-13 12:34:59,630 [main] INFO FABPIK ECOM - clicked on search navigation
2021-06-13 12:35:02,383 [main] INFO FABPIK ECOM - Selected a Product
2021-06-13 12:36:38,756 [main] INFO FABPIK ECOM - OPENED FIREFOX
2021-06-13 12:37:28,895 [main] INFO FABPIK ECOM - URL is Opened
2021-06-13 12:37:30,630 [main] INFO FABPIK ECOM - Clicked on LOGIN button in Home page
2021-06-13 12:37:33,967 [main] INFO FABPIK ECOM - Clicked after email Login button
2021-06-13 12:37:36,992 [main] INFO FABPIK ECOM - Clicking on LOGINWITHPASSWORD Button
2021-06-13 12:37:39,655 [main] INFO FABPIK ECOM - Password entered
2021-06-13 12:37:42,486 [main] INFO FABPIK ECOM - Clicked on FINAL LOGIN Button
2021-06-13 12:37:49,524 [main] INFO FABPIK ECOM - clicked on search navigation
2021-06-13 12:37:52,447 [main] INFO FABPIK ECOM - Selected a Product
2021-06-13 12:37:55,888 [main] INFO FABPIK ECOM - Selected COLOR
2021-06-13 12:37:57,724 [main] INFO FABPIK ECOM - Selected COLOR
2021-06-13 12:38:00,642 [main] INFO FABPIK ECOM - Added to cart
2021-06-13 12:38:06,042 [main] INFO FABPIK ECOM - Place to Order button clicked
2021-06-13 12:51:46,042 [main] INFO FABPIK ECOM - OPENED FIREFOX
2021-06-13 12:53:00,100 [main] INFO FABPIK ECOM - URL is Opened
2021-06-13 12:53:01,745 [main] INFO FABPIK ECOM - Clicked on LOGIN button in Home page
2021-06-13 12:53:04,993 [main] INFO FABPIK ECOM - Clicked after email Login button
2021-06-13 12:53:08,828 [main] INFO FABPIK ECOM - Clicking on LOGINWITHPASSWORD Button
2021-06-13 12:53:11,493 [main] INFO FABPIK ECOM - Password entered
2021-06-13 12:53:14,337 [main] INFO FABPIK ECOM - Clicked on FINAL LOGIN Button
2021-06-13 12:53:21,212 [main] INFO FABPIK ECOM - clicked on search navigation
2021-06-13 12:53:25,069 [main] INFO FABPIK ECOM - Selected a Product
2021-06-13 12:53:28,400 [main] INFO FABPIK ECOM - Selected COLOR
2021-06-13 12:53:30,235 [main] INFO FABPIK ECOM - Selected COLOR
2021-06-13 12:53:33,034 [main] INFO FABPIK ECOM - Added to cart
2021-06-13 12:53:38,151 [main] INFO FABPIK ECOM - Place to Order button clicked
2021-06-13 12:56:42,592 [main] INFO FABPIK ECOM - OPENED FIREFOX
2021-06-13 12:58:05,777 [main] INFO FABPIK ECOM - URL is Opened
2021-06-13 12:58:07,359 [main] INFO FABPIK ECOM - Clicked on LOGIN button in Home page
2021-06-13 12:58:10,767 [main] INFO FABPIK ECOM - Clicked after email Login button
2021-06-13 12:58:14,871 [main] INFO FABPIK ECOM - Clicking on LOGINWITHPASSWORD Button
2021-06-13 12:58:17,566 [main] INFO FABPIK ECOM - Password entered
2021-06-13 12:58:20,420 [main] INFO FABPIK ECOM - Clicked on FINAL LOGIN Button
2021-06-13 12:58:27,433 [main] INFO FABPIK ECOM - clicked on search navigation
2021-06-13 12:58:31,011 [main] INFO FABPIK ECOM - Selected a Product
2021-06-13 12:58:34,355 [main] INFO FABPIK ECOM - Selected COLOR
2021-06-13 12:58:36,191 [main] INFO FABPIK ECOM - Selected COLOR
2021-06-13 12:58:39,023 [main] INFO FABPIK ECOM - Added to cart
2021-06-13 12:58:44,212 [main] INFO FABPIK ECOM - Place to Order button clicked
2021-06-13 13:06:57,135 [main] INFO FABPIK ECOM - OPENED FIREFOX
2021-06-13 13:07:22,808 [main] INFO FABPIK ECOM - URL is Opened
2021-06-13 13:07:24,397 [main] INFO FABPIK ECOM - Clicked on LOGIN button in Home page
2021-06-13 13:07:27,752 [main] INFO FABPIK ECOM - Clicked after email Login button
2021-06-13 13:07:30,732 [main] INFO FABPIK ECOM - Clicking on LOGINWITHPASSWORD Button
2021-06-13 13:07:33,475 [main] INFO FABPIK ECOM - Password entered
2021-06-13 13:07:36,381 [main] INFO FABPIK ECOM - Clicked on FINAL LOGIN Button
2021-06-13 13:07:44,830 [main] INFO FABPIK ECOM - clicked on search navigation
2021-06-13 13:07:48,100 [main] INFO FABPIK ECOM - Selected a Product
2021-06-13 13:07:53,506 [main] INFO FABPIK ECOM - Selected COLOR
2021-06-13 13:07:55,436 [main] INFO FABPIK ECOM - Selected COLOR
2021-06-13 13:07:58,259 [main] INFO FABPIK ECOM - Added to cart
2021-06-13 13:08:03,398 [main] INFO FABPIK ECOM - Place to Order button clicked
2021-06-13 13:13:52,403 [main] INFO FABPIK ECOM - OPENED FIREFOX
2021-06-13 13:14:25,833 [main] INFO FABPIK ECOM - URL is Opened
2021-06-13 13:14:27,462 [main] INFO FABPIK ECOM - Clicked on LOGIN button in Home page
2021-06-13 13:14:30,839 [main] INFO FABPIK ECOM - Clicked after email Login button
2021-06-13 13:14:33,860 [main] INFO FABPIK ECOM - Clicking on LOGINWITHPASSWORD Button
2021-06-13 13:14:36,572 [main] INFO FABPIK ECOM - Password entered
2021-06-13 13:14:39,432 [main] INFO FABPIK ECOM - Clicked on FINAL LOGIN Button
2021-06-13 13:14:46,622 [main] INFO FABPIK ECOM - clicked on search navigation
2021-06-13 13:14:50,703 [main] INFO FABPIK ECOM - Selected a Product
2021-06-13 13:14:54,014 [main] INFO FABPIK ECOM - Selected COLOR
2021-06-13 13:14:55,869 [main] INFO FABPIK ECOM - Selected COLOR
2021-06-13 13:14:58,691 [main] INFO FABPIK ECOM - Added to cart
2021-06-13 13:15:03,955 [main] INFO FABPIK ECOM - Place to Order button clicked
2021-06-13 13:15:09,409 [main] INFO FABPIK ECOM - Selected COD
2021-06-13 13:15:13,326 [main] INFO FABPIK ECOM - PLACED ORDER
2021-06-14 11:49:14,048 [main] INFO FABPIK ECOM - OPENED FIREFOX
2021-06-14 11:50:58,106 [main] INFO FABPIK ECOM - URL is Opened
2021-06-14 11:50:58,136 [main] INFO FABPIK ECOM - THE PAGE TITLE IS:::::::  ONE STOP PORTAL FOR KIDS NEEDS
2021-06-14 11:50:59,066 [main] INFO FABPIK ECOM - Clicked on LOGIN button in Home page
2021-06-14 11:51:02,423 [main] INFO FABPIK ECOM - Clicked after email Login button
2021-06-14 11:51:05,687 [main] INFO FABPIK ECOM - Clicking on LOGINWITHPASSWORD Button
2021-06-14 11:51:08,397 [main] INFO FABPIK ECOM - Password entered
2021-06-14 11:51:11,255 [main] INFO FABPIK ECOM - Clicked on FINAL LOGIN Button
2021-06-14 11:51:11,273 [main] INFO FABPIK ECOM - Login test Passed
2021-06-14 11:52:38,965 [main] INFO FABPIK ECOM - OPENED FIREFOX
2021-06-14 11:54:22,042 [main] INFO FABPIK ECOM - URL is Opened
2021-06-14 11:54:22,082 [main] INFO FABPIK ECOM - THE PAGE TITLE IS:::::::  ONE STOP PORTAL FOR KIDS NEEDS
2021-06-14 11:54:22,948 [main] INFO FABPIK ECOM - Clicked on LOGIN button in Home page
2021-06-14 11:54:26,025 [main] INFO FABPIK ECOM - Clicked after email Login button
2021-06-14 11:54:29,040 [main] INFO FABPIK ECOM - Clicking on LOGINWITHPASSWORD Button
2021-06-14 11:54:31,742 [main] INFO FABPIK ECOM - Password entered
2021-06-14 11:54:34,562 [main] INFO FABPIK ECOM - Clicked on FINAL LOGIN Button
2021-06-14 11:54:34,581 [main] INFO FABPIK ECOM - Login test Passed
2021-06-14 11:54:55,296 [main] INFO FABPIK ECOM - OPENED FIREFOX
2021-06-14 11:56:21,858 [main] INFO FABPIK ECOM - URL is Opened
2021-06-14 11:56:23,546 [main] INFO FABPIK ECOM - Clicked on LOGIN button in Home page
2021-06-14 11:56:26,771 [main] INFO FABPIK ECOM - Clicked after email Login button
2021-06-14 11:56:29,762 [main] INFO FABPIK ECOM - Clicking on LOGINWITHPASSWORD Button
2021-06-14 11:56:32,441 [main] INFO FABPIK ECOM - Password entered
2021-06-14 11:56:35,254 [main] INFO FABPIK ECOM - Clicked on FINAL LOGIN Button
2021-06-14 11:56:43,312 [main] INFO FABPIK ECOM - clicked on search navigation
2021-06-14 11:56:46,389 [main] INFO FABPIK ECOM - Selected a Product
2021-06-14 11:56:50,102 [main] INFO FABPIK ECOM - Selected COLOR
2021-06-14 11:56:51,999 [main] INFO FABPIK ECOM - Selected COLOR
2021-06-14 11:56:54,879 [main] INFO FABPIK ECOM - Added to cart
2021-06-14 11:57:00,033 [main] INFO FABPIK ECOM - Place to Order button clicked
2021-06-14 11:57:05,075 [main] INFO FABPIK ECOM - Selected COD
2021-06-14 11:57:08,955 [main] INFO FABPIK ECOM - PLACED ORDER
2021-06-14 12:21:05,932 [main] INFO FABPIK ECOM - OPENED FIREFOX
2021-06-14 12:22:28,113 [main] INFO FABPIK ECOM - URL is Opened
2021-06-14 12:22:28,153 [main] INFO FABPIK ECOM - THE PAGE TITLE IS:::::::  ONE STOP PORTAL FOR KIDS NEEDS
2021-06-14 12:22:28,970 [main] INFO FABPIK ECOM - Clicked on LOGIN button in Home page
2021-06-14 12:22:32,276 [main] INFO FABPIK ECOM - Clicked after email Login button
2021-06-14 12:22:35,307 [main] INFO FABPIK ECOM - Clicking on LOGINWITHPASSWORD Button
2021-06-14 12:22:38,014 [main] INFO FABPIK ECOM - Password entered
2021-06-14 12:22:40,821 [main] INFO FABPIK ECOM - Clicked on FINAL LOGIN Button
2021-06-14 12:22:40,838 [main] INFO FABPIK ECOM - Login test Passed
2021-06-14 12:23:13,417 [main] INFO FABPIK ECOM - OPENED FIREFOX
2021-06-14 12:24:27,519 [main] INFO FABPIK ECOM - URL is Opened
2021-06-14 12:24:29,014 [main] INFO FABPIK ECOM - Clicked on LOGIN button in Home page
2021-06-14 12:24:32,313 [main] INFO FABPIK ECOM - Clicked after email Login button
2021-06-14 12:24:36,261 [main] INFO FABPIK ECOM - Clicking on LOGINWITHPASSWORD Button
2021-06-14 12:24:38,911 [main] INFO FABPIK ECOM - Password entered
2021-06-14 12:24:41,746 [main] INFO FABPIK ECOM - Clicked on FINAL LOGIN Button
2021-06-14 12:24:48,721 [main] INFO FABPIK ECOM - clicked on search navigation
2021-06-14 12:24:52,362 [main] INFO FABPIK ECOM - Selected a Product
2021-06-14 12:24:55,661 [main] INFO FABPIK ECOM - Selected COLOR
2021-06-14 12:24:57,444 [main] INFO FABPIK ECOM - Selected COLOR
2021-06-14 12:25:00,246 [main] INFO FABPIK ECOM - Added to cart
2021-06-14 12:25:06,284 [main] INFO FABPIK ECOM - Place to Order button clicked
2021-06-14 12:25:10,000 [main] INFO FABPIK ECOM - Selected COD
2021-06-14 12:25:13,797 [main] INFO FABPIK ECOM - PLACED ORDER
2021-06-14 12:59:54,843 [main] INFO FABPIK ECOM - OPENED FIREFOX
2021-06-14 13:01:17,730 [main] INFO FABPIK ECOM - URL is Opened
2021-06-14 13:01:22,825 [main] INFO FABPIK ECOM - THE PAGE TITLE IS:::::::  ONE STOP PORTAL FOR KIDS NEEDS
2021-06-14 13:01:23,670 [main] INFO FABPIK ECOM - Clicked on LOGIN button in Home page
2021-06-14 13:01:27,404 [main] INFO FABPIK ECOM - Clicked after email Login button
2021-06-14 13:01:30,378 [main] INFO FABPIK ECOM - Clicking on LOGINWITHPASSWORD Button
2021-06-14 13:01:33,024 [main] INFO FABPIK ECOM - Password entered
2021-06-14 13:01:35,844 [main] INFO FABPIK ECOM - Clicked on FINAL LOGIN Button
2021-06-14 13:01:35,924 [main] INFO FABPIK ECOM - Login test Passed
2021-06-14 13:01:58,363 [main] INFO FABPIK ECOM - OPENED FIREFOX
2021-06-14 13:02:24,629 [main] INFO FABPIK ECOM - URL is Opened
2021-06-14 13:02:26,105 [main] INFO FABPIK ECOM - Clicked on LOGIN button in Home page
2021-06-14 13:02:29,686 [main] INFO FABPIK ECOM - Clicked after email Login button
2021-06-14 13:02:32,698 [main] INFO FABPIK ECOM - Clicking on LOGINWITHPASSWORD Button
2021-06-14 13:02:35,362 [main] INFO FABPIK ECOM - Password entered
2021-06-14 13:02:38,176 [main] INFO FABPIK ECOM - Clicked on FINAL LOGIN Button
2021-06-14 13:02:48,126 [main] INFO FABPIK ECOM - clicked on search navigation
2021-06-14 13:02:52,039 [main] INFO FABPIK ECOM - Selected a Product
2021-06-14 13:02:55,720 [main] INFO FABPIK ECOM - Selected COLOR
2021-06-14 13:02:57,514 [main] INFO FABPIK ECOM - Selected COLOR
2021-06-14 13:03:00,360 [main] INFO FABPIK ECOM - Added to cart
2021-06-14 13:03:05,727 [main] INFO FABPIK ECOM - Place to Order button clicked
2021-06-14 13:03:11,165 [main] INFO FABPIK ECOM - Selected COD
2021-06-14 13:03:15,114 [main] INFO FABPIK ECOM - PLACED ORDER
2021-06-15 13:27:59,104 [main] INFO FABPIK ECOM - OPENED FIREFOX
2021-06-15 13:28:48,430 [main] INFO FABPIK ECOM - URL is Opened
2021-06-15 13:29:42,643 [main] INFO FABPIK ECOM - OPENED FIREFOX
2021-06-15 13:31:04,017 [main] INFO FABPIK ECOM - URL is Opened
2021-06-15 13:31:05,034 [main] INFO FABPIK ECOM - Clicked on LOGIN button in Home page
2021-06-15 13:31:07,831 [main] INFO FABPIK ECOM - Clicked after email Login button
2021-06-15 13:31:10,907 [main] INFO FABPIK ECOM - Clicking on LOGINWITHPASSWORD Button
2021-06-15 13:31:13,601 [main] INFO FABPIK ECOM - Password entered
2021-06-15 13:31:16,446 [main] INFO FABPIK ECOM - Clicked on FINAL LOGIN Button
2021-06-15 13:31:21,647 [main] INFO FABPIK ECOM - Clicked on Profile button
2021-06-15 13:31:25,659 [main] INFO FABPIK ECOM - Clicked on Order label
2021-06-15 13:32:10,350 [main] INFO FABPIK ECOM - OPENED FIREFOX
2021-06-15 13:33:18,753 [main] INFO FABPIK ECOM - URL is Opened
2021-06-15 13:33:19,757 [main] INFO FABPIK ECOM - Clicked on LOGIN button in Home page
2021-06-15 13:33:22,039 [main] INFO FABPIK ECOM - Clicked after email Login button
2021-06-15 13:33:25,091 [main] INFO FABPIK ECOM - Clicking on LOGINWITHPASSWORD Button
2021-06-15 13:33:27,824 [main] INFO FABPIK ECOM - Password entered
2021-06-15 13:33:30,666 [main] INFO FABPIK ECOM - Clicked on FINAL LOGIN Button
2021-06-15 13:33:35,587 [main] INFO FABPIK ECOM - Clicked on Profile button
2021-06-15 13:33:39,435 [main] INFO FABPIK ECOM - Clicked on Order label
2021-06-15 13:36:30,227 [main] INFO FABPIK ECOM - OPENED FIREFOX
2021-06-15 13:37:06,246 [main] INFO FABPIK ECOM - URL is Opened
2021-06-15 13:37:06,966 [main] INFO FABPIK ECOM - Clicked on LOGIN button in Home page
2021-06-15 13:37:09,284 [main] INFO FABPIK ECOM - Clicked after email Login button
2021-06-15 13:37:12,422 [main] INFO FABPIK ECOM - Clicking on LOGINWITHPASSWORD Button
2021-06-15 13:37:15,087 [main] INFO FABPIK ECOM - Password entered
2021-06-15 13:37:17,919 [main] INFO FABPIK ECOM - Clicked on FINAL LOGIN Button
2021-06-15 13:37:22,949 [main] INFO FABPIK ECOM - Clicked on Profile button
2021-06-15 13:37:27,504 [main] INFO FABPIK ECOM - Clicked on Order label
2021-06-15 13:37:33,673 [main] INFO FABPIK ECOM - Clicked on first Order in MY Orders
2021-06-15 13:39:40,355 [main] INFO FABPIK ECOM - OPENED FIREFOX
2021-06-15 13:40:30,348 [main] INFO FABPIK ECOM - URL is Opened
2021-06-15 13:40:31,282 [main] INFO FABPIK ECOM - Clicked on LOGIN button in Home page
2021-06-15 13:40:33,451 [main] INFO FABPIK ECOM - Clicked after email Login button
2021-06-15 13:40:37,391 [main] INFO FABPIK ECOM - Clicking on LOGINWITHPASSWORD Button
2021-06-15 13:40:40,053 [main] INFO FABPIK ECOM - Password entered
2021-06-15 13:40:42,902 [main] INFO FABPIK ECOM - Clicked on FINAL LOGIN Button
2021-06-15 13:40:49,905 [main] INFO FABPIK ECOM - Clicked on Profile button
2021-06-15 13:40:57,268 [main] INFO FABPIK ECOM - Clicked on Order label
2021-06-15 14:22:28,258 [main] INFO FABPIK ECOM - OPENED FIREFOX
2021-06-15 14:23:46,219 [main] INFO FABPIK ECOM - URL is Opened
2021-06-15 14:23:47,045 [main] INFO FABPIK ECOM - Clicked on LOGIN button in Home page
2021-06-15 14:23:49,614 [main] INFO FABPIK ECOM - Clicked after email Login button
2021-06-15 14:23:52,687 [main] INFO FABPIK ECOM - Clicking on LOGINWITHPASSWORD Button
2021-06-15 14:23:55,361 [main] INFO FABPIK ECOM - Password entered
2021-06-15 14:23:58,177 [main] INFO FABPIK ECOM - Clicked on FINAL LOGIN Button
2021-06-15 14:24:04,463 [main] INFO FABPIK ECOM - Clicked on Profile button
2021-06-15 14:24:09,491 [main] INFO FABPIK ECOM - Clicked on Order label
2021-06-15 14:28:48,461 [main] INFO FABPIK ECOM - OPENED FIREFOX
2021-06-15 14:30:43,259 [main] INFO FABPIK ECOM - URL is Opened
2021-06-15 14:30:44,434 [main] INFO FABPIK ECOM - Clicked on LOGIN button in Home page
2021-06-15 14:30:46,709 [main] INFO FABPIK ECOM - Clicked after email Login button
2021-06-15 14:30:50,547 [main] INFO FABPIK ECOM - Clicking on LOGINWITHPASSWORD Button
2021-06-15 14:30:53,346 [main] INFO FABPIK ECOM - Password entered
2021-06-15 14:30:56,201 [main] INFO FABPIK ECOM - Clicked on FINAL LOGIN Button
2021-06-15 14:31:01,859 [main] INFO FABPIK ECOM - Clicked on Profile button
2021-06-15 14:31:06,662 [main] INFO FABPIK ECOM - Clicked on Order label
2021-06-15 14:31:11,868 [main] INFO FABPIK ECOM - Clicked on first Order in MY Orders
2021-06-15 14:38:11,850 [main] INFO FABPIK ECOM - OPENED FIREFOX
2021-06-15 14:39:51,107 [main] INFO FABPIK ECOM - URL is Opened
2021-06-15 14:39:51,821 [main] INFO FABPIK ECOM - Clicked on LOGIN button in Home page
2021-06-15 14:39:54,081 [main] INFO FABPIK ECOM - Clicked after email Login button
2021-06-15 14:39:57,898 [main] INFO FABPIK ECOM - Clicking on LOGINWITHPASSWORD Button
2021-06-15 14:40:00,585 [main] INFO FABPIK ECOM - Password entered
2021-06-15 14:40:03,461 [main] INFO FABPIK ECOM - Clicked on FINAL LOGIN Button
2021-06-15 14:40:08,415 [main] INFO FABPIK ECOM - Clicked on Profile button
2021-06-15 14:40:12,413 [main] INFO FABPIK ECOM - Clicked on Order label
2021-06-15 14:40:17,020 [main] INFO FABPIK ECOM - Clicked on first Order in MY Orders
2021-06-15 14:46:01,012 [main] INFO FABPIK ECOM - OPENED FIREFOX
2021-06-15 14:46:37,964 [main] INFO FABPIK ECOM - URL is Opened
2021-06-15 14:46:38,693 [main] INFO FABPIK ECOM - Clicked on LOGIN button in Home page
2021-06-15 14:46:40,919 [main] INFO FABPIK ECOM - Clicked after email Login button
2021-06-15 14:46:44,167 [main] INFO FABPIK ECOM - Clicking on LOGINWITHPASSWORD Button
2021-06-15 14:46:46,867 [main] INFO FABPIK ECOM - Password entered
2021-06-15 14:46:49,727 [main] INFO FABPIK ECOM - Clicked on FINAL LOGIN Button
2021-06-15 14:46:54,811 [main] INFO FABPIK ECOM - Clicked on Profile button
2021-06-15 14:47:00,464 [main] INFO FABPIK ECOM - Clicked on Order label
2021-06-15 14:47:05,088 [main] INFO FABPIK ECOM - Clicked on first Order in MY Orders
2021-06-15 14:48:50,831 [main] INFO FABPIK ECOM - OPENED FIREFOX
2021-06-15 14:49:48,831 [main] INFO FABPIK ECOM - URL is Opened
2021-06-15 14:49:49,805 [main] INFO FABPIK ECOM - Clicked on LOGIN button in Home page
2021-06-15 14:49:51,980 [main] INFO FABPIK ECOM - Clicked after email Login button
2021-06-15 14:49:56,046 [main] INFO FABPIK ECOM - Clicking on LOGINWITHPASSWORD Button
2021-06-15 14:49:58,769 [main] INFO FABPIK ECOM - Password entered
2021-06-15 14:50:01,662 [main] INFO FABPIK ECOM - Clicked on FINAL LOGIN Button
2021-06-15 14:50:07,143 [main] INFO FABPIK ECOM - Clicked on Profile button
2021-06-15 14:50:13,839 [main] INFO FABPIK ECOM - Clicked on Order label
2021-06-15 14:50:18,634 [main] INFO FABPIK ECOM - Clicked on first Order in MY Orders
2021-06-15 14:54:52,798 [main] INFO FABPIK ECOM - OPENED FIREFOX
2021-06-15 14:56:33,190 [main] INFO FABPIK ECOM - URL is Opened
2021-06-15 14:56:34,627 [main] INFO FABPIK ECOM - Clicked on LOGIN button in Home page
2021-06-15 14:56:36,890 [main] INFO FABPIK ECOM - Clicked after email Login button
2021-06-15 14:56:39,990 [main] INFO FABPIK ECOM - Clicking on LOGINWITHPASSWORD Button
2021-06-15 14:56:42,780 [main] INFO FABPIK ECOM - Password entered
2021-06-15 14:56:45,640 [main] INFO FABPIK ECOM - Clicked on FINAL LOGIN Button
2021-06-15 14:56:50,768 [main] INFO FABPIK ECOM - Clicked on Profile button
2021-06-15 14:56:55,392 [main] INFO FABPIK ECOM - Clicked on Order label
2021-06-15 14:57:01,258 [main] INFO FABPIK ECOM - Clicked on first Order in MY Orders
2021-06-15 14:57:14,671 [main] INFO FABPIK ECOM - Clicked on CANCELLED SUCCESSFULLY
2021-06-15 14:57:14,673 [main] INFO FABPIK ECOM - TEST CASE 003 PASSED SUCCESSFULLY
2021-06-15 14:58:21,553 [main] INFO FABPIK ECOM - OPENED FIREFOX
2021-06-15 15:00:32,876 [main] INFO FABPIK ECOM - URL is Opened
2021-06-15 15:00:32,922 [main] INFO FABPIK ECOM - THE PAGE TITLE IS:::::::  ONE STOP PORTAL FOR KIDS NEEDS
2021-06-15 15:00:34,565 [main] INFO FABPIK ECOM - Clicked on LOGIN button in Home page
2021-06-15 15:00:37,907 [main] INFO FABPIK ECOM - Clicked after email Login button
2021-06-15 15:00:40,930 [main] INFO FABPIK ECOM - Clicking on LOGINWITHPASSWORD Button
2021-06-15 15:00:43,611 [main] INFO FABPIK ECOM - Password entered
2021-06-15 15:00:46,458 [main] INFO FABPIK ECOM - Clicked on FINAL LOGIN Button
2021-06-15 15:00:46,481 [main] INFO FABPIK ECOM - Login test Passed
2021-06-15 15:01:05,732 [main] INFO FABPIK ECOM - OPENED FIREFOX
2021-06-15 15:02:56,310 [main] INFO FABPIK ECOM - URL is Opened
2021-06-15 15:02:57,804 [main] INFO FABPIK ECOM - Clicked on LOGIN button in Home page
2021-06-15 15:03:01,069 [main] INFO FABPIK ECOM - Clicked after email Login button
2021-06-15 15:03:04,099 [main] INFO FABPIK ECOM - Clicking on LOGINWITHPASSWORD Button
2021-06-15 15:03:06,820 [main] INFO FABPIK ECOM - Password entered
2021-06-15 15:03:09,669 [main] INFO FABPIK ECOM - Clicked on FINAL LOGIN Button
2021-06-15 15:03:41,020 [main] INFO FABPIK ECOM - OPENED FIREFOX
2021-06-15 15:05:40,489 [main] INFO FABPIK ECOM - URL is Opened
2021-06-15 15:05:46,732 [main] INFO FABPIK ECOM - Clicked on LOGIN button in Home page
2021-06-15 15:05:49,683 [main] INFO FABPIK ECOM - Clicked after email Login button
2021-06-15 15:05:53,398 [main] INFO FABPIK ECOM - Clicking on LOGINWITHPASSWORD Button
2021-06-15 15:05:56,081 [main] INFO FABPIK ECOM - Password entered
2021-06-15 15:05:58,908 [main] INFO FABPIK ECOM - Clicked on FINAL LOGIN Button
2021-06-15 15:06:04,029 [main] INFO FABPIK ECOM - Clicked on Profile button
2021-06-15 15:06:08,754 [main] INFO FABPIK ECOM - Clicked on Order label
2021-06-15 15:06:14,650 [main] INFO FABPIK ECOM - Clicked on first Order in MY Orders
2021-06-15 15:06:27,333 [main] INFO FABPIK ECOM - Clicked on CANCELLED SUCCESSFULLY
2021-06-15 15:06:27,334 [main] INFO FABPIK ECOM - TEST CASE 003 PASSED SUCCESSFULLY
2021-06-15 17:12:44,170 [main] INFO FABPIK ECOM - OPENED FIREFOX
2021-06-15 17:14:42,442 [main] INFO FABPIK ECOM - URL is Opened
2021-06-15 17:14:45,013 [main] INFO FABPIK ECOM - Clicked on LOGIN button in Home page
2021-06-15 17:14:46,783 [main] INFO FABPIK ECOM - Clicked after email Login button
2021-06-15 17:14:49,907 [main] INFO FABPIK ECOM - Clicking on LOGINWITHPASSWORD Button
2021-06-15 17:14:52,592 [main] INFO FABPIK ECOM - Password entered
2021-06-15 17:14:55,456 [main] INFO FABPIK ECOM - Clicked on FINAL LOGIN Button
2021-06-15 17:15:02,485 [main] INFO FABPIK ECOM - clicked on search navigation
2021-06-15 17:15:04,588 [main] INFO FABPIK ECOM - Selected a Product
2021-06-15 17:20:21,162 [main] INFO FABPIK ECOM - OPENED FIREFOX
2021-06-15 17:21:03,627 [main] INFO FABPIK ECOM - URL is Opened
2021-06-15 17:21:05,686 [main] INFO FABPIK ECOM - Clicked on LOGIN button in Home page
2021-06-15 17:21:08,749 [main] INFO FABPIK ECOM - Clicked after email Login button
2021-06-15 17:21:11,810 [main] INFO FABPIK ECOM - Clicking on LOGINWITHPASSWORD Button
2021-06-15 17:21:14,484 [main] INFO FABPIK ECOM - Password entered
2021-06-15 17:21:17,346 [main] INFO FABPIK ECOM - Clicked on FINAL LOGIN Button
2021-06-15 17:21:25,001 [main] INFO FABPIK ECOM - clicked on search navigation
2021-06-15 17:21:27,138 [main] INFO FABPIK ECOM - Selected a Product
2021-06-15 17:21:35,609 [main] INFO FABPIK ECOM - Switching New Window
2021-06-15 17:21:38,651 [main] INFO FABPIK ECOM - Selected COLOR
2021-06-15 17:21:40,507 [main] INFO FABPIK ECOM - Selected COLOR
2021-06-15 17:21:43,404 [main] INFO FABPIK ECOM - Added to cart
2021-06-15 17:21:49,357 [main] INFO FABPIK ECOM - Place to Order button clicked
2021-06-15 17:21:53,740 [main] INFO FABPIK ECOM - Selected COD
2021-06-15 17:21:57,574 [main] INFO FABPIK ECOM - PLACED ORDER
