com\fabpik\utilities\Reporting.class
com\fabpik\pageObjects\Product_Cart_COD.class
com\fabpik\utilities\ReadConfig.class
com\fabpik\testCases\BaseClass.class
com\fabpik\pageObjects\LoginPage.class
com\fabpik\testCases\TC_Login_PlaceOrder.class
com\fabpik\utilities\XLUtils.class
com\fabpik\testCases\TC_LoginTest_001.class
